{"records": [
    {
        "jsonSchemaLocation": "/simdetails_customer/Service Descriptors/simdetails_customer.starterprocess-Resource.json",
        "conversionType": "linked",
        "xsdSchemaTargetNamespace": "/T1498472933349Converted/JsonSchema"
    },
    {
        "jsonSchemaLocation": "/simdetails_customer/Service Descriptors/simdetails_customer.starterprocess-Resource.json",
        "conversionType": "linked",
        "xsdSchemaTargetNamespace": "http://www.example.org/Customerschema"
    }
]}